…
#> Get USD to RUB from 2017-05-20 to 2019-12-16
#> Get JPY to RUB from 2017-04-03 to 2019-12-08
#> Get GBP to RUB from 2017-03-26 to 2019-11-23
#> Get CHF to RUB from 2017-05-14 to 2019-11-04
#> Get EUR to RUB from 2018-02-05 to 2019-10-10
#> Get CNY to RUB from 2017-07-19 to 2019-06-28
#> Get HKD to RUB from 2017-04-23 to 2019-11-17
#> 
#> There're 50 NAs out of 150 rows in exchange rates.
#> (33% of all)
#> 
#> All missing values successfully processing
#> Created "instead_date" column for replaced dates storing.
currency_df
#> # A tibble: 150 x 5
#>    date       currency     n rub_rate instead_date
#>    <date>     <chr>    <int>    <dbl> <date>      
#>  1 2019-11-09 CAD          1   48.3   NA          
#>  2 2019-06-18 USD          2   64.3   NA          
#>  3 2017-04-18 JPY          3    0.519 NA          
#>  4 2019-02-11 GBP          4   85.4   2019-02-09  
#>  5 2018-04-24 CHF          5   63.2   NA          
#>  6 2019-04-17 JPY          6    0.574 NA          
#>  7 2019-12-16 USD          7   62.6   2019-12-14  
#>  8 2017-09-28 USD          8   58.0   NA          
#>  9 2018-09-05 EUR          9   79.0   NA          
#> 10 2019-06-12 CAD         10   48.6   NA          
#> # ... with 140 more rows
```
…
